Crt. Elev number First Name Last Name  CNP     Year          Romanian       Math       Informatics       English
 1      1          Stoica       Alex 5465734823495     2003              6               8               7               6 
 2      2          Stoica     Stefan 6537486924583     2002              5               8               7               5 
 3      3           Matei     Rebeca 4583725891836     2003              8               7              10               9 
 4      4           Matei      Andra 4768535827491     2002              7               8               6               9 
 5      5            Luca      Rares 3859492583759     2003              6               5               8               7 
 6      6            Luca     Andrei 5638573849138     2003              6               5               4               6 
 7      7          Robert  Alexandru 5748359682749     2003              6               3               5               7 
 8      8         Popescu     Marian 4758624396384     2001              6               8               8               9 
 9      9         Dumitru    Andreea 4685249825835     2004              8               7              10               6 
10     10         Dumitru      Maria 4592395843852     2003              5               7               6               8 
11     11        Cojocaru      Daria 4592956825493     2002              5               3               6               8 
12     12        Dimitrie    Antonia 5476258462596     2001             10               9               7               9 
13     13        Dimitrie     Andrei 5478624560145     2002              5               8               8               4 
14     14            Albu     Andrei 5723145692857     2003              7               7               4               6 
15     15            Albu      Maria 4734367845295     2002              9               8               6               8 
16     16            Albu       Alex 5628475663293     2003              6               7               6               4 
17     17          George       Alex 5748357883274     2002              5               7               6               8 
18     18          George  Alexandra 4533275839174     2003              8               9              10              10 
19     19          Pasare     Robert 5749263782293     2001             10              10              10               9 
20     20          Pasare  Alexandru 5647692371953     2003              6               8               6               4 