^D:\DESKTOP\MYPROGRAMS\CONSULTATION1\CONSULTATION1.CPP
C:\WINDOWS\GLOBALIZATION\SORTING\SORTDEFAULT.NLS
C:\WINDOWS\SYSTEM32\RSAENH.DLL
E:\CC++\VC\TOOLS\MSVC\14.25.28610\BIN\HOSTX86\X86\1033\CLUI.DLL
C:\WINDOWS\SYSTEM32\TZRES.DLL
C:\PROGRAM FILES (X86)\WINDOWS KITS\10\INCLUDE\10.0.18362.0\UCRT\STDIO.H
C:\PROGRAM FILES (X86)\WINDOWS KITS\10\INCLUDE\10.0.18362.0\UCRT\CORECRT.H
E:\CC++\VC\TOOLS\MSVC\14.25.28610\INCLUDE\VCRUNTIME.H
E:\CC++\VC\TOOLS\MSVC\14.25.28610\INCLUDE\SAL.H
E:\CC++\VC\TOOLS\MSVC\14.25.28610\INCLUDE\CONCURRENCYSAL.H
E:\CC++\VC\TOOLS\MSVC\14.25.28610\INCLUDE\VADEFS.H
C:\PROGRAM FILES (X86)\WINDOWS KITS\10\INCLUDE\10.0.18362.0\UCRT\CORECRT_WSTDIO.H
C:\PROGRAM FILES (X86)\WINDOWS KITS\10\INCLUDE\10.0.18362.0\UCRT\CORECRT_STDIO_CONFIG.H
C:\PROGRAM FILES (X86)\WINDOWS KITS\10\INCLUDE\10.0.18362.0\UCRT\CONIO.H
C:\PROGRAM FILES (X86)\WINDOWS KITS\10\INCLUDE\10.0.18362.0\UCRT\CORECRT_WCONIO.H
