^D:\DESKTOP\MYPROGRAMS\MODIFYRELATIVEKEY\DEBUG\MODIFYRELATIVEKEY.OBJ
D:\DESKTOP\MYPROGRAMS\MODIFYRELATIVEKEY\DEBUG\MODIFYRELATIVEKEY.EXE
D:\DESKTOP\MYPROGRAMS\MODIFYRELATIVEKEY\DEBUG\MODIFYRELATIVEKEY.ILK
D:\DESKTOP\MYPROGRAMS\MODIFYRELATIVEKEY\DEBUG\MODIFYRELATIVEKEY.PDB
