^D:\DESKTOP\MYPROGRAMS\MODIFYCOMMON\DEBUG\MODIFYCOMMON.OBJ
D:\DESKTOP\MYPROGRAMS\MODIFYCOMMON\DEBUG\MODIFYCOMMON.EXE
D:\DESKTOP\MYPROGRAMS\MODIFYCOMMON\DEBUG\MODIFYCOMMON.ILK
D:\DESKTOP\MYPROGRAMS\MODIFYCOMMON\DEBUG\MODIFYCOMMON.PDB
